%YAML 1.1
%TAG !u! tag:unity3d.com,2011:
--- !u!114 &11400000
MonoBehaviour:
  m_ObjectHideFlags: 0
  m_PrefabParentObject: {fileID: 0}
  m_PrefabInternal: {fileID: 0}
  m_GameObject: {fileID: 0}
  m_Enabled: 1
  m_EditorHideFlags: 0
  m_Script: {fileID: 1581641536, guid: dfb69a6010090b94bb49085995d09762, type: 3}
  m_Name: DoveDeo_Deneme_05-2.Baked
  m_EditorClassIdentifier: 
  _model: {fileID: 11400000, guid: 4e1ae811b3412ac43879416417202e95, type: 2}
  Name: DoveDeo_Deneme_05-2.Baked
  clip: {fileID: 7400000, guid: a6fa49303863bf845b63fabeb567a9bf, type: 2}
  Loop: 0
  Duration: 4
  ExitDelay: 0
  Audio: {fileID: 11400000, guid: 90c709f157ea08b46af2c22a05e9fd3a, type: 2}
  AudioStartOffset: 0.5
  FacialAnimation: {fileID: 7400000, guid: dc356d2d6e62971449ef5a20e31391d2, type: 2}
  DontOverrideTime: 0
  DontOverrideWrapMode: 0
