%YAML 1.1
%TAG !u! tag:unity3d.com,2011:
--- !u!114 &11400000
MonoBehaviour:
  m_ObjectHideFlags: 0
  m_PrefabParentObject: {fileID: 0}
  m_PrefabInternal: {fileID: 0}
  m_GameObject: {fileID: 0}
  m_Enabled: 1
  m_EditorHideFlags: 0
  m_Script: {fileID: -105025061, guid: dfb69a6010090b94bb49085995d09762, type: 3}
  m_Name: DoveDeo_Deneme_01-1.BakeConfiguration
  m_EditorClassIdentifier: 
  TargetClip: {fileID: 11400000, guid: a505341e8538920449054265b6763504, type: 2}
  AudioClipSource: {fileID: 11400000, guid: 257f272c4c0f8eb4b82caf953474c7ee, type: 2}
  AudioStartOffset: 0.5
  BodyAnimations:
  - Time: 0
    Clip: {fileID: 7400000, guid: 3d974063b8b7eae4094557b45d5709af, type: 3}
    Duration: 0.2
  - Time: 0.5
    Clip: {fileID: 7400000, guid: b8df4d97ca442284fb1ffa268b8db230, type: 3}
    Duration: 3
  - Time: 3.8
    Clip: {fileID: 7400000, guid: 3d974063b8b7eae4094557b45d5709af, type: 3}
    Duration: 0.2
  FacialAnimations:
  - Time: 0
    Clip: {fileID: 7400000, guid: 85da00eb1f73b6644a02e82baadbc719, type: 2}
    Duration: 0.2
  - Time: 0.5
    Clip: {fileID: 7400000, guid: 980db98d8887afb46a13bbc6882ef443, type: 2}
    Duration: 3
  - Time: 3.8
    Clip: {fileID: 7400000, guid: 85da00eb1f73b6644a02e82baadbc719, type: 2}
    Duration: 0.2
  BlendshapePrefixes:
  - path: 
    prefix: Head_Morph.
  - path: eyeBrow
    prefix: eyeBrows_Morph.
  - path: eyeLashes
    prefix: eyeLashes_Morph.
  AddIntermediateFrames: 0
  IntermediateFrameThreshold: 0.25
