%YAML 1.1
%TAG !u! tag:unity3d.com,2011:
--- !u!114 &11400000
MonoBehaviour:
  m_ObjectHideFlags: 0
  m_PrefabParentObject: {fileID: 0}
  m_PrefabInternal: {fileID: 0}
  m_GameObject: {fileID: 0}
  m_Enabled: 1
  m_EditorHideFlags: 0
  m_Script: {fileID: 63298104, guid: d72750b08261ca743b3a5f4a67eaebce, type: 3}
  m_Name: DoveDeo.SamplerStatusCondition
  m_EditorClassIdentifier: 
  _IgnoreInEditor: 0
  _requiredProducts: 0600000007000000
  _maximumMissingProducts: 0
