%YAML 1.1
%TAG !u! tag:unity3d.com,2011:
--- !u!114 &11400000
MonoBehaviour:
  m_ObjectHideFlags: 0
  m_PrefabParentObject: {fileID: 0}
  m_PrefabInternal: {fileID: 0}
  m_GameObject: {fileID: 0}
  m_Enabled: 1
  m_EditorHideFlags: 0
  m_Script: {fileID: 2107536958, guid: c474d681236e1254097f37bf8b3afbc2, type: 3}
  m_Name: DoveDeo_06-07
  m_EditorClassIdentifier: 
  SourceState: {fileID: 11400000, guid: 08ecd623861c19d4ca5b8296f860ec8c, type: 2}
  Disabled: 0
  TargetState: {fileID: 11400000, guid: 4dc47cc27e7f6414f8f8fc72dcf01958, type: 2}
