%YAML 1.1
%TAG !u! tag:unity3d.com,2011:
--- !u!114 &11400000
MonoBehaviour:
  m_ObjectHideFlags: 0
  m_PrefabParentObject: {fileID: 0}
  m_PrefabInternal: {fileID: 0}
  m_GameObject: {fileID: 0}
  m_Enabled: 1
  m_EditorHideFlags: 0
  m_Script: {fileID: -788506392, guid: b497ec614b839304da820cbb5a35e96d, type: 3}
  m_Name: DoveDeo_06_Button_ProductAfterSelection.PageController
  m_EditorClassIdentifier: 
  actionListeners:
  - {fileID: 11400000, guid: 7f3d71bb3ee5e484db17cbbb2e4817db, type: 2}
  _conditions: []
  _filterActionIds: 
  ID: 0
  Name: DoveDeo_06_ProductAfterSelection
  PageTemplate: {fileID: 114093880195438116, guid: b30f99f975d51c4488c111caa00f8e41,
    type: 2}
  contentSource: {fileID: 11400000, guid: dad3c3272c40f84448e453f7d5ae3a8a, type: 2}
  state: {fileID: 11400000, guid: 08ecd623861c19d4ca5b8296f860ec8c, type: 2}
  reCreatePageOnEnter: 0
  logToServer: 0
  deactivate: 0
  _ownerObjects: []
  _showConditions: []
