%YAML 1.1
%TAG !u! tag:unity3d.com,2011:
--- !u!114 &11400000
MonoBehaviour:
  m_ObjectHideFlags: 0
  m_PrefabParentObject: {fileID: 0}
  m_PrefabInternal: {fileID: 0}
  m_GameObject: {fileID: 0}
  m_Enabled: 1
  m_EditorHideFlags: 0
  m_Script: {fileID: -1556036313, guid: c474d681236e1254097f37bf8b3afbc2, type: 3}
  m_Name: DoveDeo_02_HatSelection.ContentSource
  m_EditorClassIdentifier: 
  MovieContents: []
  SpriteContents: []
  TextContents:
  - Name: Japanese
    ID: 77
    content: "Japanese\t\t"
  - Name: Exotic
    ID: 78
    content: Exotic
  Texture2DContents: []
