%YAML 1.1
%TAG !u! tag:unity3d.com,2011:
--- !u!114 &11400000
MonoBehaviour:
  m_ObjectHideFlags: 0
  m_PrefabParentObject: {fileID: 0}
  m_PrefabInternal: {fileID: 0}
  m_GameObject: {fileID: 0}
  m_Enabled: 1
  m_EditorHideFlags: 0
  m_Script: {fileID: 1119185782, guid: b497ec614b839304da820cbb5a35e96d, type: 3}
  m_Name: DoveDeo_ProductIDVariableSetter.SceneActionVariableSetterRouted
  m_EditorClassIdentifier: 
  actionListeners: []
  _conditions: []
  _filterActionIds: 
  variableID: 5
  routes:
  - source: 40
    sink: 87
  - source: 41
    sink: 88
