%YAML 1.1
%TAG !u! tag:unity3d.com,2011:
--- !u!114 &11400000
MonoBehaviour:
  m_ObjectHideFlags: 0
  m_PrefabParentObject: {fileID: 0}
  m_PrefabInternal: {fileID: 0}
  m_GameObject: {fileID: 0}
  m_Enabled: 1
  m_EditorHideFlags: 0
  m_Script: {fileID: -1495984613, guid: dfb69a6010090b94bb49085995d09762, type: 3}
  m_Name: DoveDeo_01-1.AudioClipSource
  m_EditorClassIdentifier: 
  Audio: {fileID: 8300000, guid: c75481aac4d2d4444ba98d9b70613dbc, type: 3}
  Texts:
  - TimeOffset: 0.082
    Text: "Bu yaz farkl\u0131 bir stil ile dikkatleri \xFCzerine \xE7ekmeye var m\u0131s\u0131n?"
